{
  "name": "Castor Blue",
  "content_container_padding": {
    "top": 0,
    "bottom": 0,
    "left": 0,
    "right": 0
  },
  "default": {
    "panel": {
      "backgrounds": {
        "default": "#292929ff"
      },
      "borders": {
        "default": {
          "thickness": 0,
          "color": "#151515ff"
        }
      },
      "textcolors": {
        "default": "#fafafaff",
        "disabled": "#969696ff"
      }
    },
    "button": {
      "outset": true,
      "backgrounds": {
        "default": "#252525ff",
        "hover": "#212121ff"
      },
      "borders": {
        "default": {
          "thickness": 1,
          "color": "#c0cfda"
        },
        "hover": {
          "thickness": 1,
          "color": "#6e6e6eff"
        }
      },
      "textcolors": {
        "default": "#fafafaff"
      },
      "padding": {
        "top": 4.2,
        "bottom": 4.2,
        "left": 14,
        "right": 14
      }
    },
    "textbox": {
      "backgrounds": {
        "default": "#f5f5f5"
      },
      "borders": {
        "default": {
          "thickness": 1,
          "color": "#0a6e82"
        },
        "focused": {
          "thickness": 1,
          "color": "#3ba1d6"
        },
        "hover": {
          "thickness": 1,
          "color": "#0a6e82"
        }
      },
      "textcolors": {
        "default": "#4b4b4b",
        "placeholder": "#3b3b3b"
      },
      "padding": {
        "top": 4.2,
        "bottom": 4.2,
        "left": 14,
        "right": 14
      }
    },
    "checkbox": {},
    "list_item": {}
  },
  "topbar": {
    "panel": {
      "backgrounds": {
        "default": "#6e92ac"
      },
      "borders": {
        "default": {
          "thickness": 0,
          "color": "#00000000"
        }
      },
      "textcolors": {
        "default": "#fafafaff"
      },
      "padding": {
        "top": 7,
        "bottom": 7,
        "left": 7,
        "right": 7
      },
      "spacing": [1.4, 1.4]
    },
    "button": {
      "outset": true,
      "backgrounds": {
        "default": "#6e92ac",
        "hover": "#1e425c"
      },
      "borders": {
        "default": {
          "thickness": 1,
          "color": "#c0cfda"
        },
        "hover": {
          "thickness": 1,
          "color": "#6e6e6eff"
        }
      },
      "textcolors": {
        "default": "#fafafaff"
      },
      "padding": {
        "top": 4.2,
        "bottom": 4.2,
        "left": 14,
        "right": 14
      }
    },
    "textbox": {
      "backgrounds": {
        "default": "#c0cfda"
      },
      "borders": {
        "default": {
          "thickness": 1,
          "color": "#6e92ac"
        },
        "focused": {
          "thickness": 1,
          "color": "#3e627c"
        },
        "hover": {
          "thickness": 1,
          "color": "#4e728c"
        }
      },
      "textcolors": {
        "default": "#000000",
        "placeholder": "#363636ff"
      },
      "padding": {
        "top": 4.2,
        "bottom": 4.2,
        "left": 10,
        "right": 10
      }
    },
    "checkbox": {},
    "list_item": {}
  },
  "tabbar": {
    "panel": {
      "backgrounds": {
        "default": "#6e92ac"
      },
      "borders": {
        "default": {
          "thickness": 0,
          "color": "#00000000"
        }
      },
      "textcolors": {
        "default": "#fafafaff"
      },
      "padding": {
        "left": 7,
        "right": 7
      }
    },
    "button": {
      "backgrounds": {
        "active": "#1e425c",
        "default": "#6e92ac",
        "hover": "#1e425c"
      },
      "borders": {
        "active": {
          "thickness": 1,
          "color": "#0f212e"
        },
        "default": {
          "thickness": 1,
          "color": "#354955"
        },
        "hover": {
          "thickness": 1,
          "color": "#0f212e"
        }
      },
      "textcolors": {
        "active": "#ffffffff",
        "default": "#fafafaff"
      },
      "padding": {
        "top": 7,
        "bottom": 7,
        "left": 20,
        "right": 20
      }
    },
    "textbox": {},
    "checkbox": {},
    "list_item": {}
  },
  "sidebar": {
    "max_width": 245,
    "min_width": 150,
    "dock": "default",
    "panel": {
      "backgrounds": {
        "default": "#4f7e92"
      },
      "borders": {
        "default": {
          "thickness": 1,
          "color": "#146414ff"
        }
      },
      "textcolors": {
        "default": "#fafafaff"
      },
      "padding": {
        "top": 14,
        "bottom": 14,
        "left": 14,
        "right": 14
      },
      "spacing": [3, 3]
    },
    "button": {
      "outset": true,
      "backgrounds": {
        "default": "#6e92ac",
        "hover": "#1e425c"
      },
      "borders": {
        "default": {
          "thickness": 1,
          "color": "#c0cfda"
        },
        "hover": {
          "thickness": 1,
          "color": "#6e6e6eff"
        }
      },
      "textcolors": {
        "default": "#fafafaff"
      },
      "padding": {
        "top": 4.2,
        "bottom": 4.2,
        "left": 14,
        "right": 14
      }
    },
    "textbox": {},
    "checkbox": {},
    "list_item": {
      "backgrounds": {
        "hover": "#1e425c"
      },
      "textcolors": {
        "default": "#fafafaff"
      },
      "padding": {
        "top": 4.2,
        "bottom": 4.2,
        "left": 14,
        "right": 14
      },
      "indent_size": 20
    }
  },
  "page": {
    "max_width": 600,
    "max_image_width": 1120,
    "cender": false,
    "panel": {
      "backgrounds": {
        "default": "#e2ece2"
      },
      "padding": {
        "top": 1.4,
        "bottom": 0,
        "left": 28,
        "right": 28
      }
    },
    "button": {},
    "textbox": {
      "backgrounds": {
        "default": "#f5f5f5"
      },
      "borders": {
        "default": {
          "thickness": 1,
          "color": "#0a6e82"
        },
        "focused": {
          "thickness": 1,
          "color": "#3ba1d6"
        },
        "hover": {
          "thickness": 1,
          "color": "#0a6e82"
        }
      },
      "textcolors": {
        "default": "#4b4b4b",
        "placeholder": "#3b3b3b"
      },
      "padding": {
        "top": 4.2,
        "bottom": 4.2,
        "left": 14,
        "right": 14
      }
    },
    "checkbox": {},
    "list_item": {},
    "document": {
      "blockquote": {
        "borders": {
          "default": {
            "thickness": 1,
            "color": "#6b6b6b"
          }
        },
        "textcolors": {
          "default": "#6b6b6b"
        },
        "padding": {
          "top": 10,
          "bottom": 14
        },
        "indent_size": 20
      },
      "body": {
        "textcolors": {
          "default": "#000000"
        }
      },
      "heading1": {
        "textcolors": {
          "default": "#9d35ce"
        }
      },
      "heading2": {
        "textcolors": {
          "default": "#fd1f9a"
        }
      },
      "heading3": {
        "textcolors": {
          "default": "#ad5faa"
        }
      },
      "heading4": {
        "textcolors": {
          "default": "#172922"
        }
      },
      "link": {
        "backgrounds": {
          "default": "#6e92ac"
        },
        "textcolors": {
          "default": "#555555",
          "hover": "#6e92ac"
        }
      },
      "link_nex": {
        "textcolors": {
          "default": "#555555",
          "hover": "#6e92ac"
        },
        "spacing": [7, 7]
      },
      "list_item": {
        "textcolors": {
          "default": "#008100"
        },
        "indent_size": 20
      },
      "preformat": {
        "textcolors": {
          "default": "#6b6b6b"
        }
      }
    }
  },
  "page_inlined": {
    "panel": {},
    "button": {},
    "textbox": {},
    "checkbox": {},
    "list_item": {}
  },
  "popup": {
    "panel": {},
    "button": {},
    "textbox": {},
    "checkbox": {},
    "list_item": {}
  }
}
