{
    "name": "Dark",
    "content_container_padding": {
        "top": 14,
        "bottom": 14,
        "left": 14,
        "right": 14
    },
    "default": {
        "panel": {
            "backgrounds": {
                "default": "#292929ff"
            },
            "borders": {
                "default": {
                    "thickness": 0,
                    "color": "#151515ff"
                }
            },
            "textcolors": {
                "default": "#fafafaff",
                "disabled": "#969696ff"
            }
        },
        "button": {
            "backgrounds": {
                "default": "#252525ff",
                "hover": "#212121ff"
            },
            "borders": {
                "default": {
                    "thickness": 1,
                    "color": "#515151ff"
                },
                "hover": {
                    "thickness": 1,
                    "color": "#6e6e6eff"
                }
            },
            "textcolors": {
                "default": "#fafafaff"
            },
            "padding": {
                "top": 4.2,
                "bottom": 4.2,
                "left": 14,
                "right": 14
            }
        },
        "textbox": {
            "radius": 2,
            "backgrounds": {
                "default": "#212121ff"
            },
            "borders": {
                "default": {
                    "thickness": 1,
                    "color": "#515151ff"
                },
                "focused": {
                    "thickness": 1,
                    "color": "#329632ff"
                },
                "hover": {
                    "thickness": 1,
                    "color": "#6e6e6eff"
                }
            },
            "textcolors": {
                "default": "#fafafaff",
                "placeholder": "#969696ff"
            },
            "padding": {
                "top": 4.2,
                "bottom": 4.2,
                "left": 10,
                "right": 10
            }
        },
        "checkbox": {},
        "list_item": {}
    },
    "topbar": {
        "panel": {
            "backgrounds": {
                "default": "#151515ff"
            },
            "textcolors": {
                "default": "#fafafaff"
            },
            "padding": {
                "top": 7,
                "bottom": 7,
                "left": 7,
                "right": 7
            },
            "spacing": [
                7,
                7
            ]
        },
        "button": {
            "outset": true,
            "backgrounds": {
                "default": "#111111ff",
                "hover": "#0d0d0dff"
            },
            "borders": {
                "default": {
                    "thickness": 1,
                    "color": "#515151ff"
                },
                "hover": {
                    "thickness": 1,
                    "color": "#6e6e6eff"
                }
            },
            "textcolors": {
                "default": "#fafafaff"
            },
            "padding": {
                "top": 4.2,
                "bottom": 4.2,
                "left": 14,
                "right": 14
            }
        },
        "textbox": {},
        "checkbox": {},
        "list_item": {}
    },
    "tabbar": {
        "position": "below",
        "add_button_position": "opposite",
        "panel": {
            "backgrounds": {
                "default": "#151515ff"
            },
            "textcolors": {
                "default": "#fafafaff"
            },
            "padding": {
                "left": 7,
                "right": 7
            },
            "spacing": [
                1,
                1
            ]
        },
        "button": {
            "outset": true,
            "backgrounds": {
                "active": "#292929ff",
                "default": "#111111ff",
                "hover": "#0d0d0dff"
            },
            "borders": {
                "active": {
                    "thickness": 1,
                    "color": "#146414ff"
                },
                "default": {
                    "thickness": 1,
                    "color": "#515151ff"
                },
                "hover": {
                    "thickness": 1,
                    "color": "#6e6e6eff"
                }
            },
            "textcolors": {
                "active": "#fafafaff",
                "default": "#7d7d7dff"
            },
            "padding": {
                "top": 7,
                "bottom": 7,
                "left": 21,
                "right": 21
            }
        },
        "textbox": {},
        "checkbox": {},
        "list_item": {}
    },
    "sidebar": {
        "max_width": 245,
        "min_width": 140,
        "dock": "default",
        "panel": {
            "radius": 2,
            "backgrounds": {
                "default": "#151515ff"
            },
            "borders": {
                "default": {
                    "thickness": 1,
                    "color": "#146414ff"
                }
            },
            "textcolors": {
                "default": "#fafafaff"
            },
            "padding": {
                "top": 14,
                "bottom": 14,
                "left": 14,
                "right": 14
            },
            "spacing": [
                7,
                7
            ]
        },
        "button": {
            "outset": true,
            "backgrounds": {
                "default": "#111111ff",
                "hover": "#0d0d0dff"
            },
            "borders": {
                "default": {
                    "thickness": 1,
                    "color": "#515151ff"
                },
                "hover": {
                    "thickness": 1,
                    "color": "#6e6e6eff"
                }
            },
            "textcolors": {
                "default": "#fafafaff"
            },
            "padding": {
                "top": 4.2,
                "bottom": 4.2,
                "left": 14,
                "right": 14
            }
        },
        "textbox": {},
        "checkbox": {},
        "list_item": {
            "indent_size": 21,
            "backgrounds": {
                "hover": "#184d61ff"
            },
            "textcolors": {
                "default": "#fafafaff"
            },
            "padding": {
                "top": 4.2,
                "bottom": 4.2,
                "left": 14,
                "right": 14
            }
        }
    },
    "page": {
        "max_width": 861,
        "max_image_width": 1260,
        "center": true,
        "panel": {
            "padding": {
                "top": 1,
                "left": 14,
                "right": 14
            }
        },
        "button": {},
        "textbox": {},
        "checkbox": {},
        "list_item": {},
        "document": {
            "blockquote": {
                "indent_size": 21,
                "borders": {
                    "default": {
                        "thickness": 1,
                        "color": "#7d7d7dff"
                    }
                },
                "textcolors": {
                    "default": "#9b9b9bff"
                },
                "padding": {
                    "top": 10,
                    "bottom": 14
                }
            },
            "body": {
                "textcolors": {
                    "default": "#b4b4b4ff"
                }
            },
            "heading1": {
                "textcolors": {
                    "default": "#ffffffff"
                }
            },
            "heading2": {
                "textcolors": {
                    "default": "#97abb4ff"
                }
            },
            "heading3": {
                "textcolors": {
                    "default": "#6799b2ff"
                }
            },
            "heading4": {
                "textcolors": {
                    "default": "#6799b2ff"
                }
            },
            "link": {
                "textcolors": {
                    "default": "#fafafaff",
                    "hover": "#20bffdff"
                }
            },
            "link_nex": {
                "textcolors": {
                    "default": "#fafafaff",
                    "hover": "#20bffdff"
                },
                "spacing": [
                    5,
                    5
                ]
            },
            "list_item": {
                "indent_size": 21,
                "textcolors": {
                    "default": "#b4b4b4ff"
                }
            },
            "preformat": {
                "textcolors": {
                    "default": "#a5a5a5ff"
                }
            }
        }
    },
    "page_inlined": {
        "panel": {},
        "button": {},
        "textbox": {},
        "checkbox": {},
        "list_item": {}
    },
    "popup": {
        "panel": {},
        "button": {},
        "textbox": {},
        "checkbox": {},
        "list_item": {}
    }
}