{
  "name": "Kristall Light",
  "content_container_padding": {
    "top": 0,
    "bottom": 0,
    "left": 0,
    "right": 0
  },
  "default": {
    "panel": {
      "backgrounds": {
        "default": "#edefff"
      },
      "borders": {
        "default": {
          "thickness": 0,
          "color": "#151515ff"
        }
      },
      "textcolors": {
        "default": "#33383d",
        "disabled": "#33383d"
      }
    },
    "button": {
      "radius": 2,
      "backgrounds": {
        "default": "#eff0f1",
        "hover": "#eff0f1"
      },
      "borders": {
        "default": {
          "thickness": 1,
          "color": "#bab9b8"
        },
        "hover": {
          "thickness": 1,
          "color": "#33a4df"
        }
      },
      "textcolors": {
        "default": "#000000"
      },
      "padding": {
        "top": 4.2,
        "bottom": 4.2,
        "left": 14,
        "right": 14
      }
    },
    "textbox": {
      "radius": 2,
      "backgrounds": {
        "default": "#fcfcfc"
      },
      "borders": {
        "default": {
          "thickness": 1,
          "color": "#bab9b8"
        },
        "focused": {
          "thickness": 1,
          "color": "#33a4df"
        },
        "hover": {
          "thickness": 1,
          "color": "#33a4df"
        }
      },
      "textcolors": {
        "default": "#31363b",
        "placeholder": "#999b9e"
      },
      "padding": {
        "top": 4.2,
        "bottom": 4.2,
        "left": 10,
        "right": 10
      }
    },
    "checkbox": {},
    "list_item": {}
  },
  "topbar": {
    "panel": {
      "backgrounds": {
        "default": "#eff0f1"
      },
      "borders": {
        "default": {
          "thickness": 0,
          "color": "#000000"
        }
      },
      "textcolors": {
        "default": "#33383d"
      },
      "padding": {
        "top": 7,
        "bottom": 7,
        "left": 7,
        "right": 7
      },
      "spacing": [10, 10]
    },
    "button": {
      "radius": 2,
      "backgrounds": {
        "default": "#eff0f1",
        "hover": "#eff0f1"
      },
      "borders": {
        "default": {
          "thickness": 1,
          "color": "#bab9b8"
        },
        "hover": {
          "thickness": 1,
          "color": "#33a4df"
        }
      },
      "textcolors": {
        "default": "#000000"
      },
      "padding": {
        "top": 4.2,
        "bottom": 4.2,
        "left": 14,
        "right": 14
      }
    },
    "textbox": {},
    "checkbox": {},
    "list_item": {}
  },
  "tabbar": {
    "position": "above",
    "add_button_position": "after_tabs",
    "panel": {
      "backgrounds": {
        "default": "#eff0f1"
      },
      "borders": {
        "default": {
          "thickness": 0,
          "color": "#00000000"
        }
      },
      "textcolors": {
        "default": "#33383d"
      },
      "padding": {
        "left": 1,
        "right": 1
      }
    },
    "button": {
      "backgrounds": {
        "active": "#eff0f1",
        "default": "#d9d8d7",
        "hover": "#dee9f0"
      },
      "borders": {
        "active": {
          "thickness": 1,
          "color": "#bab9b8"
        },
        "default": {
          "thickness": 1,
          "color": "#bab9b8"
        },
        "hover": {
          "thickness": 1,
          "color": "#dee9f0"
        }
      },
      "textcolors": {
        "active": "#563a42",
        "default": "#563a42"
      },
      "padding": {
        "top": 7,
        "bottom": 7,
        "left": 14,
        "right": 14
      }
    },
    "textbox": {},
    "checkbox": {},
    "list_item": {}
  },
  "sidebar": {
    "max_width": 210,
    "min_width": 150,
    "dock": "default",
    "panel": {
      "backgrounds": {
        "default": "#fcfcfc"
      },
      "borders": {
        "default": {
          "thickness": 1,
          "color": "#bab9b8"
        }
      },
      "textcolors": {
        "default": "#33383d"
      },
      "padding": {
        "top": 7,
        "bottom": 7,
        "left": 7,
        "right": 7
      },
      "spacing": [7, 7]
    },
    "button": {
      "radius": 2,
      "backgrounds": {
        "default": "#eff0f1",
        "hover": "#eff0f1"
      },
      "borders": {
        "default": {
          "thickness": 1,
          "color": "#bab9b8"
        },
        "hover": {
          "thickness": 1,
          "color": "#33a4df"
        }
      },
      "textcolors": {
        "default": "#000000"
      },
      "padding": {
        "top": 4.2,
        "bottom": 4.2,
        "left": 14,
        "right": 14
      }
    },
    "textbox": {},
    "checkbox": {},
    "list_item": {
      "backgrounds": {
        "hover": "#e9f4fa"
      },
      "textcolors": {
        "default": "#33383d"
      },
      "padding": {
        "top": 4.2,
        "bottom": 4.2,
        "left": 14,
        "right": 14
      },
      "indent_size": 14
    }
  },
  "page": {
    "max_width": 770,
    "max_image_width": 1120,
    "center": true,
    "panel": {
      "padding": {
        "top": 1,
        "bottom": 0,
        "left": 14,
        "right": 14
      }
    },
    "button": {},
    "textbox": {},
    "checkbox": {},
    "list_item": {},
    "document": {
      "blockquote": {
        "borders": {
          "default": {
            "thickness": 1,
            "color": "#6b6b6b"
          }
        },
        "textcolors": {
          "default": "#6b6b6b"
        },
        "padding": {
          "top": 10,
          "bottom": 14
        },
        "indent_size": 20
      },
      "body": {
        "textcolors": {
          "default": "#000000"
        }
      },
      "heading1": {
        "textcolors": {
          "default": "#022f90"
        }
      },
      "heading2": {
        "textcolors": {
          "default": "#022f90"
        }
      },
      "heading3": {
        "textcolors": {
          "default": "#022f90"
        }
      },
      "heading4": {
        "textcolors": {
          "default": "#172922"
        }
      },
      "link": {
        "textcolors": {
          "default": "#0e8fff",
          "hover": "#0e8fff"
        }
      },
      "link_nex": {
        "textcolors": {
          "default": "#0e8fff",
          "hover": "#0e8fff"
        },
        "spacing": [7, 7]
      },
      "list_item": {
        "textcolors": {
          "default": "#000000"
        },
        "indent_size": 20
      },
      "preformat": {
        "textcolors": {
          "default": "#6b6b6b"
        }
      }
    }
  },
  "page_inlined": {
    "panel": {},
    "button": {},
    "textbox": {},
    "checkbox": {},
    "list_item": {}
  },
  "popup": {
    "panel": {},
    "button": {},
    "textbox": {},
    "checkbox": {},
    "list_item": {}
  }
}
